1 10 20
100 200 125
201 210 89
900 1000 174
7653 738 262
406 760 171
680 252 145
589 71 144
387 803 171
117 220 125
371 740 171
210 152 125
435 421 116
206 6 125
827 218 171
166 313 131
490 168 144
577 862 171
358 803 171
586 545 137
344 179 144
962 752 179
156 359 144
108 873 179
265 940 179
143 125 122
398 365 121
182 724 171
364 895 179
568 299 144
249 62 128
327 382 144
559 369 142
6307 58381 340
84347 94303 333
76987 20607 340
77087 57984 351
96642 46918 351
34136 31356 285
15961 17221 266
39076 65415 340
17225 54788 340
71338 29151 340
67809 20474 340
27322 84615 351
95325 2889 351
57804 14077 340
61947 43021 340
87961 48622 351
28080 82678 351
26053 7094 282
54060 28835 340
46096 90652 351
99315 72774 351
43174 56689 340
65507 42755 340
95148 67553 351
93494 30097 351
82629 51936 351
41753 10547 324
30349 82118 351
36865 62220 340
46958 79937 351
89023 23757 351
31446 592 308
23568 85422 351
4270 71523 340
87988 86092 333
48984 83020 351
93627 5598 351
34058 90680 351
83320 47101 351
62830 15282 340
91195 61208 351
35240 55189 340
87607 36948 351
54346 25616 340
97052 83187 333
64717 28938 340
3111 70259 340
9887 37463 324
21263 73664 340
19097 60122 340
9921 49356 324
33424 4724 308
6028 19678 279
45762 76299 340
11625 84648 351
64295 36714 340
68052 18404 340
94046 12590 351
89066 3889 351
88280 35760 351
18018 45056 324
57496 18114 340
72586 11279 340
70264 41331 340
56913 62747 335
5303 48783 324
67989 25841 340
61191 64744 330
62970 20698 340
22575 10289 279
5043 91539 351
52948 23547 340
8746 56856 340
1421 23721 282
52977 63887 335
89012 14168 351
91607 61211 351
16793 33512 308
95437 60978 351
63069 73961 330
54919 98386 351
36403 26830 324
84986 50396 351
27479 21539 308
74321 75488 325
21057 73187 340
69583 90858 351
59453 75322 335
2193 53929 340
36215 97677 351
21646 43606 324
19314 12692 279
48722 76767 340
7692 63941 340
74290 56939 335
32302 24747 308
39865 70390 340
10599 80211 351
39148 85425 351
92779 2162 351
79331 8013 351
48715 6512 324
45350 53619 340
12735 66149 340
73920 3680 340
53972 54939 260
55613 55769 260
81013 62629 351
28664 17974 308
3700 54147 340
79713 42824 351
32785 12317 308
45706 1245 324
95445 63040 351
91540 91042 333
16626 37697 324
2015 6341 262
29911 38390 324
44812 26517 324
1170 97230 351
92025 61415 351
51744 64888 340
65497 13688 340
95267 429 351
27706 78314 351
94723 67835 351
28590 85773 351
96664 60922 351
23723 46568 324
27709 57136 340
66452 12634 340
14768 68851 340
55418 1580 340
18750 23196 274
94798 53697 351
42641 88918 351
91349 21527 351
75952 68836 325
83538 79633 320
15641 80494 351
77893 31485 351
82663 11888 351
48521 46741 314
8482 8601 203
37644 64999 340
40075 14615 324
51165 38293 314
43458 89049 351
77665 59641 351
67235 83362 351
100 100 26
200 200 27
300 300 17
