.................
----------------------------------------------------------------------
Ran 17 tests in 0.073s

OK
Name             Stmts   Miss Branch BrPart  Cover   Missing
------------------------------------------------------------
Collatz.py          37      2     14      1    94%   47->48, 48-49
TestCollatz.py      72      0      0      0   100%
------------------------------------------------------------
TOTAL              109      2     14      1    98%
