1 10 20
100 200 125
201 210 89
900 1000 174
1 1 1
10 1 20
1 999999 525
999999 1 525
999 9999 262
999999 999999 259
792 2047 182
9055 96000 351
74000 5 340
40000 577000 470
22 28 112
29 44 110
45 99 119
100 201 125
202 250 128
300 400 144
786273 324356 509
800000 900000 525
24678 24680 189
900000 999999 507
2 999998 525
3 999998 525
5 850000 525
67 890243 525
237164 541965 470
10000 10010 180
10011 10090 224
20000 20080 212
100000 100010 310
100011 100200 341
100201 100210 116
300467 340437 384
809908 908809 525
666666 999999 525
777778 888887 525
555000 555327 390
55005 55010 154
34009 35000 311
23 789654 509
123456 678910 509
65 9 113
246 89 128
67 420 144
666 420420 449
1234 4321 238
30897 72309 340
833333 323333 509
469 734 171
6883 2001 262
410 9931 262
248 652 145
923 369 179
4763 3652 238
627 934 179
972 983 143
3018 1313 217
22222 11111 279
444777 8 449
4 300 128
11 17 18
13 853689 525
901000 26 525
389 786 171
235 5080 238
7657 8422 252
112 9112 262
967648 58 525
795339 13663 509
15792 188391 383
810965 287276 509
501637 343714 449
864241 478360 525
183226 51362 383
838217 86588 525
454739 638430 509
959290 337111 525
38902 367734 443
124513 254713 443
744506 506055 509
929191 718033 525
568006 892952 525
181965 730433 509
993420 942744 458
13286 476907 449
738154 116585 509
96994 232074 443
448966 657081 509
646406 63784 509
815631 177383 509
213409 310895 443
358199 74493 443
544031 813843 509
500481 666947 509
250861 38728 443
451849 984247 525
487857 234554 449
579925 190447 470
35183 705944 509
54382 848612 525
79 105363 351
82 590736 470
460946 383531 449
663410 336796 509
719528 509041 509
268421 376149 441
975429 446651 525
599781 395003 470
129078 211517 383
519902 721145 509
863544 173956 525
68847 161964 383
293327 830754 509
745432 577147 509
6 310693 443
916743 132122 525
611479 562027 434
904670 788601 525
844447 270607 525
424575 813932 509
433570 232288 449
576667 576667 178
298033 786319 509
357007 316629 441
965316 798991 525
844678 474743 525
63204 218912 386
360903 144118 443
961269 753133 525
144641 874864 525
621786 92153 470
394290 428547 449
977735 943651 458
28503 495034 449
28459 213585 383
314151 830506 509
820864 261498 509
556833 36954 470
3669 48242 324
29345 19750 308
37220 9546 324
40976 41593 244
23398 19092 274
1126 5215 238
38818 30041 324
20826 21453 256
10529 15049 276
759502 32 509
42 162737 383
202778 190649 360
461034 421783 418
10 11 15
12 13 10
3 2 8
1 2 2
1 100 119
2 200 125
3 300 128
17 52 112
19 19000 279
100 100 26
200 100 125
20 19 21
