..............
----------------------------------------------------------------------
Ran 14 tests in 0.046s

OK
Name             Stmts   Miss Branch BrPart  Cover   Missing
------------------------------------------------------------
Collatz.py          44      0     12      0   100%
TestCollatz.py      65      0      0      0   100%
------------------------------------------------------------
TOTAL              109      0     12      0   100%
